…
city_summ
```

    ## # A tibble: 50 × 4
    ##    city_state     estimate conf.low conf.high
    ##    <chr>             <dbl>    <dbl>     <dbl>
    ##  1 Albuquerque,NM    0.386    0.337     0.438
    ##  2 Atlanta,GA        0.383    0.353     0.415
    ##  3 Baltimore,MD      0.646    0.628     0.663
    ##  4 Baton Rouge,LA    0.462    0.414     0.511
    ##  5 Birmingham,AL     0.434    0.399     0.469
    ##  6 Boston,MA         0.505    0.465     0.545
    ##  7 Buffalo,NY        0.612    0.569     0.654
    ##  8 Charlotte,NC      0.300    0.266     0.336
    ##  9 Chicago,IL        0.736    0.724     0.747
    ## 10 Cincinnati,OH     0.445    0.408     0.483
    ## # … with 40 more rows
…
``` r
P2_tidy <-
  P2_iterate %>% 
  pivot_longer(
    week_1:week_8,
    values_to = "Observation",
    names_to = "Week") %>%
  mutate(Week = str_remove(Week, "week_")) %>%
  select(-path,-file)

P2_tidy
```

    ## # A tibble: 160 × 4
    ##    arm     id    Week  Observation
    ##    <chr>   <chr> <chr>       <dbl>
    ##  1 control 01    1            0.2 
    ##  2 control 01    2           -1.31
    ##  3 control 01    3            0.66
    ##  4 control 01    4            1.96
    ##  5 control 01    5            0.23
    ##  6 control 01    6            1.09
    ##  7 control 01    7            0.05
    ##  8 control 01    8            1.94
    ##  9 control 02    1            1.13
    ## 10 control 02    2           -0.88
    ## # … with 150 more rows
…
### Problem 3

``` r
set.seed(10)

iris_with_missing = iris %>% 
  map_df(~replace(.x, sample(1:150, 20), NA)) %>%
  mutate(Species = as.character(Species))

iris_with_missing
```

    ## # A tibble: 150 × 5
    ##    Sepal.Length Sepal.Width Petal.Length Petal.Width Species
    ##           <dbl>       <dbl>        <dbl>       <dbl> <chr>  
    ##  1          5.1         3.5          1.4         0.2 setosa 
    ##  2          4.9         3            1.4         0.2 setosa 
    ##  3          4.7         3.2          1.3         0.2 setosa 
    ##  4          4.6         3.1          1.5        NA   setosa 
    ##  5          5           3.6          1.4         0.2 setosa 
    ##  6          5.4         3.9          1.7         0.4 setosa 
    ##  7         NA           3.4          1.4         0.3 setosa 
    ##  8          5           3.4          1.5         0.2 setosa 
    ##  9          4.4         2.9          1.4         0.2 setosa 
    ## 10          4.9         3.1         NA           0.1 setosa 
    ## # … with 140 more rows
…
iris_df <-
  map(iris_with_missing, missing_rep) %>%
  bind_rows()

iris_df
```

    ## # A tibble: 150 × 5
    ##    Sepal.Length Sepal.Width Petal.Length Petal.Width Species
    ##           <dbl>       <dbl>        <dbl>       <dbl> <chr>  
    ##  1         5.1          3.5         1.4         0.2  setosa 
    ##  2         4.9          3           1.4         0.2  setosa 
    ##  3         4.7          3.2         1.3         0.2  setosa 
    ##  4         4.6          3.1         1.5         1.19 setosa 
    ##  5         5            3.6         1.4         0.2  setosa 
    ##  6         5.4          3.9         1.7         0.4  setosa 
    ##  7         5.82         3.4         1.4         0.3  setosa 
    ##  8         5            3.4         1.5         0.2  setosa 
    ##  9         4.4          2.9         1.4         0.2  setosa 
    ## 10         4.9          3.1         3.77        0.1  setosa 
    ## # … with 140 more rows
